// Jest Snapshot v1, https://goo.gl/fbAQLP

exports[`CloverModal basic snapshot test 1`] = `
<div>
  <dialog
    class="sc-bdVaJa fLIYjc"
    open=""
  >
    <div
      class="sc-bwzfXH juFkTq"
    >
      foo bar
    </div>
  </dialog>
</div>
`;
