// Jest Snapshot v1, https://goo.gl/fbAQLP

exports[`CloverLoading basic snapshot test 1`] = `
<div>
  <div>
    <div
      class="sc-bdVaJa ciwYhT"
    />
    <div
      class="sc-bdVaJa ciwYhT"
    />
    <div
      class="sc-bdVaJa ciwYhT"
    />
    <div
      class="sc-bdVaJa ciwYhT"
    />
  </div>
</div>
`;
